FIFO/waveform.vcd
$version Generated by VerilatedVcd $end
$timescale 1ps $end

 $scope module TOP $end
  $var wire  1 6 clk $end
  $var wire  8 < rdata [7:0] $end
  $var wire  1 = rempty $end
  $var wire  1 ; rinc $end
  $var wire  1 7 rst_n $end
  $var wire  8 9 wdata [7:0] $end
  $var wire  1 : wfull $end
  $var wire  1 8 winc $end
  $scope module sync_fifo $end
   $var wire 32 B ADDR_WIDTH [31:0] $end
   $var wire 32 A DEPTH [31:0] $end
   $var wire 32 @ WIDTH [31:0] $end
   $var wire  1 6 clk $end
   $var wire  5 5 data_cnt [4:0] $end
   $var wire  8 < rdata [7:0] $end
   $var wire  1 = rempty $end
   $var wire  1 ; rinc $end
   $var wire  4 4 rptr_bin [3:0] $end
   $var wire  1 7 rst_n $end
   $var wire  8 9 wdata [7:0] $end
   $var wire  1 : wfull $end
   $var wire  1 8 winc $end
   $var wire  4 3 wptr_bin [3:0] $end
   $scope module fifo_ram_inst $end
    $var wire 32 B ADDRESS_WIDTH [31:0] $end
    $var wire 32 @ DATA_WIDTH [31:0] $end
    $var wire  4 3 addra [3:0] $end
    $var wire  4 4 addrb [3:0] $end
    $var wire  1 6 clka $end
    $var wire  1 6 clkb $end
    $var wire  8 9 dina [7:0] $end
    $var wire  8 < doutb [7:0] $end
    $var wire  8 # m_ram[0] [7:0] $end
    $var wire  8 - m_ram[10] [7:0] $end
    $var wire  8 . m_ram[11] [7:0] $end
    $var wire  8 / m_ram[12] [7:0] $end
    $var wire  8 0 m_ram[13] [7:0] $end
    $var wire  8 1 m_ram[14] [7:0] $end
    $var wire  8 2 m_ram[15] [7:0] $end
    $var wire  8 $ m_ram[1] [7:0] $end
    $var wire  8 % m_ram[2] [7:0] $end
    $var wire  8 & m_ram[3] [7:0] $end
    $var wire  8 ' m_ram[4] [7:0] $end
    $var wire  8 ( m_ram[5] [7:0] $end
    $var wire  8 ) m_ram[6] [7:0] $end
    $var wire  8 * m_ram[7] [7:0] $end
    $var wire  8 + m_ram[8] [7:0] $end
    $var wire  8 , m_ram[9] [7:0] $end
    $var wire  1 ? reb $end
    $var wire  1 > wea $end
   $upscope $end
  $upscope $end
 $upscope $end
$enddefinitions $end


#0
b00000000 #
b00000000 $
b00000000 %
b00000000 &
b00000000 '
b00000000 (
b00000000 )
b00000000 *
b00000000 +
b00000000 ,
b00000000 -
b00000000 .
b00000000 /
b00000000 0
b00000000 1
b00000000 2
b0000 3
b0000 4
b00000 5
16
17
08
b00000000 9
0:
0;
b00000000 <
0=
0>
0?
b00000000000000000000000000001000 @
b00000000000000000000000000010000 A
b00000000000000000000000000000100 B
#1
06
07
#2
16
#3
06
#4
16
#5
06
#6
16
17
1=
#7
06
#8
16
b00000001 9
#9
06
#10
16
b00000010 9
#11
06
#12
b00000011 #
b0001 3
b00001 5
16
18
b00000011 9
1>
#13
06
#14
b00000100 $
b0010 3
b00010 5
16
b00000100 9
0=
#15
06
#16
b00000101 %
b0011 3
b00011 5
16
b00000101 9
#17
06
#18
b00000110 &
b0100 3
b00100 5
16
b00000110 9
#19
06
#20
b00000111 '
b0101 3
b00101 5
16
b00000111 9
#21
06
#22
b00001000 (
b0110 3
b00110 5
16
b00001000 9
#23
06
#24
b00001001 )
b0111 3
b00111 5
16
b00001001 9
#25
06
#26
b00001010 *
b1000 3
b01000 5
16
b00001010 9
#27
06
#28
b00001011 +
b1001 3
b01001 5
16
b00001011 9
#29
06
#30
b00001100 ,
b1010 3
b01010 5
16
b00001100 9
#31
06
#32
b00001101 -
b1011 3
b01011 5
16
b00001101 9
#33
06
#34
b00001110 .
b1100 3
b01100 5
16
b00001110 9
#35
06
#36
b00001111 /
b1101 3
b01101 5
16
b00001111 9
#37
06
#38
b00010000 0
b1110 3
b01110 5
16
b00010000 9
#39
06
#40
b00010001 1
b1111 3
b01111 5
16
b00010001 9
#41
06
#42
b00010010 2
b0000 3
b10000 5
16
b00010010 9
1:
0>
#43
06
#44
16
b00010011 9
#45
06
#46
16
b00010100 9
#47
06
#48
16
b00010101 9
#49
06
#50
16
08
b00010110 9
#51
06
#52
16
18
b00010111 9
#53
06
#54
16
b00011000 9
#55
06
#56
16
b00011001 9
#57
06
#58
16
b00011010 9
#59
06
#60
16
b00011011 9
#61
06
#62
16
08
b00011100 9
#63
06
#64
16
18
b00011101 9
#65
06
#66
16
b00011110 9
#67
06
#68
16
b00011111 9
#69
06
#70
b0001 4
16
b00100000 9
1;
b00000011 <
1?
#71
06
#72
16
b00100001 9
0;
0?
#73
06
#74
16
b00100010 9
#75
06
#76
16
b00100011 9
#77
06
#78
16
b00100100 9
#79
06
#80
b0010 4
16
b00100101 9
1;
b00000100 <
1?
#81
06
#82
b0011 4
16
b00100110 9
b00000101 <
#83
06
#84
b0100 4
16
b00100111 9
b00000110 <
#85
06
#86
b0101 4
16
b00101000 9
b00000111 <
#87
06
#88
b0110 4
16
b00101001 9
b00001000 <
#89
06
#90
b0111 4
16
b00101010 9
b00001001 <
#91
06
#92
b1000 4
16
b00101011 9
b00001010 <
#93
06
#94
b1001 4
16
b00101100 9
b00001011 <
#95
06
#96
b1010 4
16
b00101101 9
b00001100 <
#97
06
#98
b1011 4
16
b00101110 9
b00001101 <
#99
06
#100
b1100 4
16
b00101111 9
b00001110 <
#101
06
#102
b1101 4
16
b00110000 9
b00001111 <
#103
06
#104
b1110 4
16
b00110001 9
b00010000 <
#105
06
#106
b1111 4
16
b00110010 9
b00010001 <
#107
06
#108
b0000 4
16
b00110011 9
b00010010 <
#109
06
#110
b0001 4
16
b00110100 9
b00000011 <
#111
06
#112
b0010 4
16
b00110101 9
b00000100 <
#113
06
#114
b0011 4
16
b00110110 9
b00000101 <
#115
06
#116
b0100 4
16
b00110111 9
b00000110 <
#117
06
#118
b0101 4
16
b00111000 9
b00000111 <
#119
06
#120
b0110 4
16
b00111001 9
b00001000 <
#121
06
#122
b0111 4
16
b00111010 9
b00001001 <
#123
06
#124
b1000 4
16
b00111011 9
b00001010 <
#125
06
#126
b1001 4
16
b00111100 9
b00001011 <
#127
06
#128
b1010 4
16
b00111101 9
b00001100 <
#129
06
#130
b1011 4
16
b00111110 9
b00001101 <
#131
06
#132
b1100 4
16
b00111111 9
b00001110 <
#133
06
#134
b1101 4
16
b01000000 9
b00001111 <
#135
06
#136
b1110 4
16
b01000001 9
b00010000 <
#137
06
#138
b1111 4
16
b01000010 9
b00010001 <
#139
06
#140
b0000 4
16
b01000011 9
b00010010 <
#141
06
#142
b0001 4
16
b01000100 9
b00000011 <
#143
06
#144
b0010 4
16
b01000101 9
b00000100 <
#145
06
#146
b0011 4
16
b01000110 9
b00000101 <
#147
06
#148
b0100 4
16
b01000111 9
b00000110 <
#149
06
#150
b0101 4
16
b01001000 9
b00000111 <
#151
06
#152
b0110 4
16
b01001001 9
b00001000 <
#153
06
#154
b0111 4
16
b01001010 9
b00001001 <
#155
06
#156
b1000 4
16
b01001011 9
b00001010 <
#157
06
#158
b1001 4
16
b01001100 9
b00001011 <
#159
06
#160
b1010 4
16
b01001101 9
b00001100 <
#161
06
#162
b1011 4
16
b01001110 9
b00001101 <
#163
06
#164
b1100 4
16
b01001111 9
b00001110 <
#165
06
#166
b1101 4
16
b01010000 9
b00001111 <
#167
06
#168
b1110 4
16
b01010001 9
b00010000 <
#169
06
#170
b1111 4
16
b01010010 9
b00010001 <
#171
06
#172
b0000 4
16
b01010011 9
b00010010 <
#173
06
#174
b0001 4
16
b01010100 9
b00000011 <
#175
06
#176
b0010 4
16
b01010101 9
b00000100 <
#177
06
#178
b0011 4
16
b01010110 9
b00000101 <
#179
06
#180
b0100 4
16
b01010111 9
b00000110 <
#181
06
#182
b0101 4
16
b01011000 9
b00000111 <
#183
06
#184
b0110 4
16
b01011001 9
b00001000 <
#185
06
#186
b0111 4
16
b01011010 9
b00001001 <
#187
06
#188
b1000 4
16
b01011011 9
b00001010 <
#189
06
#190
b1001 4
16
b01011100 9
b00001011 <
#191
06
#192
b1010 4
16
b01011101 9
b00001100 <
#193
06
#194
b1011 4
16
b01011110 9
b00001101 <
#195
06
#196
b1100 4
16
b01011111 9
b00001110 <
#197
06
#198
b1101 4
16
b01100000 9
b00001111 <
#199
06
#200
b1110 4
16
b01100001 9
b00010000 <
#201
06
#202
b1111 4
16
b01100010 9
b00010001 <
#203
06
#204
b0000 4
16
b01100011 9
b00010010 <
#205
06
#206
b0001 4
16
b01100100 9
b00000011 <
#207
06
#208
b0010 4
16
b01100101 9
b00000100 <
#209
06
#210
b0011 4
16
b01100110 9
b00000101 <
#211
06
#212
b0100 4
16
b01100111 9
b00000110 <
#213
06
#214
b0101 4
16
b01101000 9
b00000111 <
#215
06
#216
b0110 4
16
b01101001 9
b00001000 <
#217
06
#218
b0111 4
16
b01101010 9
b00001001 <
#219
06
#220
b1000 4
16
b01101011 9
b00001010 <
#221
06
#222
b1001 4
16
b01101100 9
b00001011 <
#223
06
#224
b1010 4
16
b01101101 9
b00001100 <
#225
06
#226
b1011 4
16
b01101110 9
b00001101 <
#227
06
#228
b1100 4
16
b01101111 9
b00001110 <
#229
06
#230
b1101 4
16
b01110000 9
b00001111 <
#231
06
#232
b1110 4
16
b01110001 9
b00010000 <
#233
06
#234
b1111 4
16
b01110010 9
b00010001 <
#235
06
#236
b0000 4
16
b01110011 9
b00010010 <
#237
06
#238
b0001 4
16
b01110100 9
b00000011 <
#239
06
#240
b0010 4
16
b01110101 9
b00000100 <
#241
06
#242
b0011 4
16
b01110110 9
b00000101 <
#243
06
#244
b0100 4
16
b01110111 9
b00000110 <
#245
06
#246
b0101 4
16
b01111000 9
b00000111 <
#247
06
#248
b0110 4
16
b01111001 9
b00001000 <
#249
06
#250
b0111 4
16
b01111010 9
b00001001 <
#251
06
#252
b1000 4
16
b01111011 9
b00001010 <
#253
06
#254
b1001 4
16
b01111100 9
b00001011 <
#255
06
#256
b1010 4
16
b01111101 9
b00001100 <
#257
06
#258
b1011 4
16
b01111110 9
b00001101 <
#259
06
#260
b1100 4
16
b01111111 9
b00001110 <
#261
06
#262
b1101 4
16
b10000000 9
b00001111 <
#263
06
#264
b1110 4
16
b10000001 9
b00010000 <
#265
06
#266
b1111 4
16
b10000010 9
b00010001 <
#267
06
#268
b0000 4
16
b10000011 9
b00010010 <
#269
06
#270
b0001 4
16
b10000100 9
b00000011 <
#271
06
#272
b0010 4
16
b10000101 9
b00000100 <
#273
06
#274
b0011 4
16
b10000110 9
b00000101 <
#275
06
#276
b0100 4
16
b10000111 9
b00000110 <
#277
06
#278
b0101 4
16
b10001000 9
b00000111 <
#279
06
#280
b0110 4
16
b10001001 9
b00001000 <
#281
06
#282
b0111 4
16
b10001010 9
b00001001 <
#283
06
#284
b1000 4
16
b10001011 9
b00001010 <
#285
06
#286
b1001 4
16
b10001100 9
b00001011 <
#287
06
#288
b1010 4
16
b10001101 9
b00001100 <
#289
06
#290
b1011 4
16
b10001110 9
b00001101 <
#291
06
#292
b1100 4
16
b10001111 9
b00001110 <
#293
06
#294
b1101 4
16
b10010000 9
b00001111 <
#295
06
#296
b1110 4
16
b10010001 9
b00010000 <
#297
06
#298
b1111 4
16
b10010010 9
b00010001 <
