时钟倍频/waveform.vcd
$version Generated by VerilatedVcd $end
$timescale 1ns $end

 $scope module TOP $end
  $var wire  1 # clk $end
  $var wire  1 % clk_o $end
  $var wire  1 $ rst_n $end
  $scope module clock_times $end
   $var wire  1 # clk $end
   $var wire  1 % clk_o $end
   $var wire  1 & q_r $end
   $var wire  1 $ rst_n $end
  $upscope $end
 $upscope $end
$enddefinitions $end


#0
1#
1$
0%
1&
#1
0#
0&
#2
1#
0$
1%
#3
0#
0%
#4
1#
1%
#5
0#
0%
#6
1#
1$
1&
#7
0#
0&
#8
1#
1&
#9
0#
0&
#10
1#
1&
#11
0#
0&
#12
1#
1&
#13
0#
0&
#14
1#
1&
#15
0#
0&
#16
1#
1&
#17
0#
0&
#18
1#
1&
#19
0#
0&
#20
1#
1&
#21
0#
0&
#22
1#
1&
#23
0#
0&
#24
1#
1&
#25
0#
0&
#26
1#
1&
#27
0#
0&
#28
1#
1&
#29
0#
0&
#30
1#
1&
#31
0#
0&
#32
1#
1&
#33
0#
0&
#34
1#
1&
#35
0#
0&
#36
1#
1&
#37
0#
0&
#38
1#
1&
#39
0#
0&
#40
1#
1&
#41
0#
0&
#42
1#
1&
#43
0#
0&
#44
1#
1&
#45
0#
0&
#46
1#
1&
#47
0#
0&
#48
1#
1&
#49
0#
0&
#50
1#
1&
#51
0#
0&
#52
1#
1&
#53
0#
0&
#54
1#
1&
#55
0#
0&
#56
1#
1&
#57
0#
0&
#58
1#
1&
#59
0#
0&
#60
1#
1&
#61
0#
0&
#62
1#
1&
#63
0#
0&
#64
1#
1&
#65
0#
0&
#66
1#
1&
#67
0#
0&
#68
1#
1&
#69
0#
0&
#70
1#
1&
#71
0#
0&
#72
1#
1&
#73
0#
0&
#74
1#
1&
#75
0#
0&
#76
1#
1&
#77
0#
0&
#78
1#
1&
#79
0#
0&
#80
1#
1&
#81
0#
0&
#82
1#
1&
#83
0#
0&
#84
1#
1&
#85
0#
0&
#86
1#
1&
#87
0#
0&
#88
1#
1&
#89
0#
0&
#90
1#
1&
#91
0#
0&
#92
1#
1&
#93
0#
0&
#94
1#
1&
#95
0#
0&
#96
1#
1&
#97
0#
0&
#98
1#
1&
#99
0#
0&
#100
1#
1&
#101
0#
0&
#102
1#
1&
#103
0#
0&
#104
1#
1&
#105
0#
0&
#106
1#
1&
#107
0#
0&
#108
1#
1&
#109
0#
0&
#110
1#
1&
#111
0#
0&
#112
1#
1&
#113
0#
0&
#114
1#
1&
#115
0#
0&
#116
1#
1&
#117
0#
0&
#118
1#
1&
#119
0#
0&
#120
1#
1&
#121
0#
0&
#122
1#
1&
#123
0#
0&
#124
1#
1&
#125
0#
0&
#126
1#
1&
#127
0#
0&
#128
1#
1&
#129
0#
0&
#130
1#
1&
#131
0#
0&
#132
1#
1&
#133
0#
0&
#134
1#
1&
#135
0#
0&
#136
1#
1&
#137
0#
0&
#138
1#
1&
#139
0#
0&
#140
1#
1&
#141
0#
0&
#142
1#
1&
#143
0#
0&
#144
1#
1&
#145
0#
0&
#146
1#
1&
#147
0#
0&
#148
1#
1&
#149
0#
0&
#150
1#
1&
#151
0#
0&
#152
1#
1&
#153
0#
0&
#154
1#
1&
#155
0#
0&
#156
1#
1&
#157
0#
0&
#158
1#
1&
#159
0#
0&
#160
1#
1&
#161
0#
0&
#162
1#
1&
#163
0#
0&
#164
1#
1&
#165
0#
0&
#166
1#
1&
#167
0#
0&
#168
1#
1&
#169
0#
0&
#170
1#
1&
#171
0#
0&
#172
1#
1&
#173
0#
0&
#174
1#
1&
#175
0#
0&
#176
1#
1&
#177
0#
0&
#178
1#
1&
#179
0#
0&
#180
1#
1&
#181
0#
0&
#182
1#
1&
#183
0#
0&
#184
1#
1&
#185
0#
0&
#186
1#
1&
#187
0#
0&
#188
1#
1&
#189
0#
0&
#190
1#
1&
#191
0#
0&
#192
1#
1&
#193
0#
0&
#194
1#
1&
#195
0#
0&
#196
1#
1&
#197
0#
0&
#198
1#
1&
#199
0#
0&
#200
1#
1&
#201
0#
0&
#202
1#
1&
#203
0#
0&
#204
1#
1&
#205
0#
0&
#206
1#
1&
#207
0#
0&
#208
1#
1&
#209
0#
0&
#210
1#
1&
#211
0#
0&
#212
1#
1&
#213
0#
0&
#214
1#
1&
#215
0#
0&
#216
1#
1&
#217
0#
0&
#218
1#
1&
#219
0#
0&
#220
1#
1&
#221
0#
0&
#222
1#
1&
#223
0#
0&
#224
1#
1&
#225
0#
0&
#226
1#
1&
#227
0#
0&
#228
1#
1&
#229
0#
0&
#230
1#
1&
#231
0#
0&
#232
1#
1&
#233
0#
0&
#234
1#
1&
#235
0#
0&
#236
1#
1&
#237
0#
0&
#238
1#
1&
#239
0#
0&
#240
1#
1&
#241
0#
0&
#242
1#
1&
#243
0#
0&
#244
1#
1&
#245
0#
0&
#246
1#
1&
#247
0#
0&
#248
1#
1&
#249
0#
0&
#250
1#
1&
#251
0#
0&
#252
1#
1&
#253
0#
0&
#254
1#
1&
#255
0#
0&
#256
1#
1&
#257
0#
0&
#258
1#
1&
#259
0#
0&
#260
1#
1&
#261
0#
0&
#262
1#
1&
#263
0#
0&
#264
1#
1&
#265
0#
0&
#266
1#
1&
#267
0#
0&
#268
1#
1&
#269
0#
0&
#270
1#
1&
#271
0#
0&
#272
1#
1&
#273
0#
0&
#274
1#
1&
#275
0#
0&
#276
1#
1&
#277
0#
0&
#278
1#
1&
#279
0#
0&
#280
1#
1&
#281
0#
0&
#282
1#
1&
#283
0#
0&
#284
1#
1&
#285
0#
0&
#286
1#
1&
#287
0#
0&
#288
1#
1&
#289
0#
0&
#290
1#
1&
#291
0#
0&
#292
1#
1&
#293
0#
0&
#294
1#
1&
#295
0#
0&
#296
1#
1&
#297
0#
0&
#298
1#
1&
#299
0#
0&
